<?xml version="1.0" encoding="utf-8"?>
<!-- Generator: Adobe Illustrator 18.0.0, SVG Export Plug-In . SVG Version: 6.00 Build 0)  -->
<!DOCTYPE svg PUBLIC "-//W3C//DTD SVG 1.1//EN" "http://www.w3.org/Graphics/SVG/1.1/DTD/svg11.dtd">
<svg version="1.1" id="Layer_1" xmlns="http://www.w3.org/2000/svg" xmlns:xlink="http://www.w3.org/1999/xlink" x="0px" y="0px"
	 viewBox="-114.5 -114 250 250" enable-background="new -114.5 -114 250 250" xml:space="preserve">
<g>
	<path d="M43,103.5c-5.7-3.1-13-1.3-16.3,4.1c-1,1.7-2.5,3.2-4.4,4.1c-1.8,1-3.9,1.5-5.9,1.5s-4.1-0.5-5.9-1.5
		c-1.8-1-3.3-2.4-4.4-4.1c-3.3-5.4-10.6-7.3-16.3-4.1s-7.6,10.1-4.3,15.5c3.1,5.2,7.6,9.5,13.1,12.4c5.4,3,11.6,4.6,17.8,4.6
		s12.4-1.6,17.8-4.6c5.4-3,9.9-7.3,13.1-12.4C50.6,113.6,48.7,106.6,43,103.5z"/>
	<path d="M118.7,49.8c-4.5-4.3-7-10-7-16.1v-56.8c0-24.1-10-47.2-27.9-64.3C65.9-104.4,41.7-114,16.5-114s-49.5,9.6-67.3,26.6
		s-27.9,40.2-27.9,64.3v56.8c0,6-2.5,11.8-7,16.1c-4.5,4.3-10.5,6.7-16.8,6.7c-6.6,0-11.9,5.1-11.9,11.4s5.3,11.4,11.9,11.4h238.1
		V56.5C129.2,56.5,123.1,54.1,118.7,49.8z M-61.4,56.5c4.1-6.9,6.4-14.7,6.4-22.7v-56.8c0-18.1,7.5-35.4,20.9-48.2
		c13.4-12.8,31.6-20,50.5-20s37.1,7.2,50.5,20c13.4,12.8,20.9,30.1,20.9,48.2v56.8c0,8,2.2,15.9,6.4,22.7H-61.4z"/>
</g>
</svg>
