<?xml version="1.0" encoding="utf-8"?>
<!-- Generator: Adobe Illustrator 18.0.0, SVG Export Plug-In . SVG Version: 6.00 Build 0)  -->
<!DOCTYPE svg PUBLIC "-//W3C//DTD SVG 1.1//EN" "http://www.w3.org/Graphics/SVG/1.1/DTD/svg11.dtd">
<svg version="1.1" id="Layer_1" xmlns="http://www.w3.org/2000/svg" xmlns:xlink="http://www.w3.org/1999/xlink" x="0px" y="0px"
	 viewBox="-116 -115 250 250" enable-background="new -116 -115 250 250" xml:space="preserve">
<path fill-opacity="0.8" d="M64.6-115v25H-46.6v-25h-27.8v25h-13.9c-15.4,0-27.6,11.3-27.6,25l-0.1,175c0,13.8,12.4,25,27.8,25
	h194.4c15.3,0,27.8-11.2,27.8-25V-65c0-13.8-12.5-25-27.8-25H92.3v-25H64.6z M106.2,110H-88.2V-27.5h194.4V110z"/>
</svg>
