<?xml version="1.0" encoding="utf-8"?>
<!-- Generator: Adobe Illustrator 18.0.0, SVG Export Plug-In . SVG Version: 6.00 Build 0)  -->
<!DOCTYPE svg PUBLIC "-//W3C//DTD SVG 1.1//EN" "http://www.w3.org/Graphics/SVG/1.1/DTD/svg11.dtd">
<svg version="1.1" id="Layer_1" xmlns="http://www.w3.org/2000/svg" xmlns:xlink="http://www.w3.org/1999/xlink" x="0px" y="0px"
	 viewBox="-117 -116.6 250 250" enable-background="new -117 -116.6 250 250" xml:space="preserve">
<path d="M-117,133.4V-86.4c0-16.7,14.2-30.2,31.7-30.2h186.7c17.5,0,31.7,13.6,31.7,30.2V47.3c0,16.7-14.2,30.2-31.7,30.2H-58.6
	L-117,133.4z M-85.3-100.7c-8.3,0-15,6.4-15,14.3V94.9l34.9-33.3h166.8c8.3,0,15-6.4,15-14.3V-86.4c0-7.9-6.7-14.3-15-14.3H-85.3z"
	/>
</svg>
