<?xml version="1.0" encoding="utf-8"?>
<!-- Generator: Adobe Illustrator 18.0.0, SVG Export Plug-In . SVG Version: 6.00 Build 0)  -->
<!DOCTYPE svg PUBLIC "-//W3C//DTD SVG 1.1//EN" "http://www.w3.org/Graphics/SVG/1.1/DTD/svg11.dtd">
<svg version="1.1" id="Layer_1" xmlns="http://www.w3.org/2000/svg" xmlns:xlink="http://www.w3.org/1999/xlink" x="0px" y="0px"
	 viewBox="-113 -113 250 250" enable-background="new -113 -113 250 250" xml:space="preserve">
<g>
	<path d="M12-113c-69,0-125,56-125,125c0,69,56,125,125,125c69,0,125-56,125-125C137-57,81-113,12-113z M12,87
		c-41.3,0-75-33.6-75-75c0-41.4,33.6-75,75-75c41.4,0,75,33.6,75,75C87,53.4,53.4,87,12,87z"/>
	<path d="M-12.5-51.9c-8.2,3.1-15.6,7.8-21.9,13.6l0,0c-0.1,0.3-0.2,0.6-0.3,0.8c-0.3,1,1.8,0.3,1.8,0.3l2.3,1l2.8-1
		c0,0,0.8-1.6,2.6-2.8c1.3-0.9,1.5-1.3,1.8-1.9c0.1-0.2,0.3-0.4,0.5-0.7c0.4-0.5,0.4-0.5,0.7-0.8c0.3-0.3,1-1,2.7-2.8
		c3.4-3.6,5.2-3.6,5.2-3.6S-13.3-50.9-12.5-51.9z"/>
	<polygon points="-1,-35 -1,-32.3 4.4,-33.3 6.4,-34.9 3.4,-38.2 1.4,-41.1 -0.9,-39.8 -0.9,-35.2 -3.4,-36.1 -4.5,-33.8 
		-3.4,-32.3 	"/>
	<path d="M52.1,13.7c-1.1-1.5-2.1-2.8-2.4-3.4C49,9,48.2,6.5,48,5.4c-0.2-0.6-0.7-2-1.2-3.1c-0.3-0.7-0.5-1.2-0.6-1.5
		c-0.2-0.6-1.2-2-1.9-3c-0.3-0.4-0.5-0.7-0.6-0.9c-0.3-0.5-1-0.8-1.8-1.2c-0.5-0.3-1.1-0.5-1.5-0.9c-1-0.8-7.5-2.1-7.5-2.1
		s-2-1.2-2.6-0.8c-2.6,2.1-8.5,0.8-9.8,0.2C19-8.3,18.3-9,18.3-9.8s-1.2-4.5-1.2-4.5s-2.5,0.4-3.3,0.4c-0.8,0-2.8-0.8-2.8-0.8
		s-2.6,0.2-3.6,0.8c-1,0.5-3.1,1.3-3.9,1.5c-0.8,0.3-2.8,0.5-2.8,0.5c-2.3-1-4.1,1.5-4.7,2.6c-0.2,0.4-0.5,0.7-0.8,1.1
		c-0.4,0.5-0.8,0.9-0.8,1.5c0,1-1.8,2.6-2.6,3.1c-0.2,0.1-0.4,0.2-0.7,0.4c-1.1,0.7-3.1,1.9-3.7,2.9C-13.2,1-14,2.6-14.3,3.9
		c-0.3,1.3-0.3,2.3-0.3,4.1c0,0.6,0,1.2-0.1,1.7c-0.1,0.9-0.1,1.7,0.1,2.7c0.2,1.5,2.8,5.4,3.9,6.7c1,1.3,2.3,2.8,3.6,3.6
		c1.3,0.8,3.1,2.3,3.1,2.3s1,1.5,3.1,0.8c0.9-0.3,1.7-0.5,2.6-0.7C2.9,24.9,4,24.6,5.1,24c1.8-1,4.6-2.3,4.6-0.8
		c0,1.6,1,2.6,2.6,2.1c0.2-0.1,0.5-0.2,0.8-0.3c1.5-0.6,3.3-1.2,3.1,0.3c-0.2,1.2,0.1,2.5,0.3,3.6c0.1,0.6,0.2,1.2,0.2,1.6
		c0,0.2,0,0.4,0,0.6c0,0.8-0.1,1.6,0.5,2.2c0.2,0.2,0.6,0.5,1,0.8c0.9,0.7,1.8,1.5,1.8,2c0,0.8,0.2,3.4,0.8,4.4s1,2.6,0.5,3.6
		c-0.5,1-1.6,3.9-1.6,3.9s-0.5,2.3-0.3,3.1c0.3,0.8,0.7,1.8,2,3.1c0.7,0.7,0.9,1.6,1.1,2.3c0.1,0.6,0.3,1.1,0.6,1.5
		c0.8,1,1.6,4.1,1.6,4.1l0.1,2.6v2.3c0,0,5.7-0.8,6.7-1c1-0.3,5.1-2.1,6.1-3.1c0.5-0.5,0.7-0.9,0.9-1.3c0.3-0.5,0.5-1,1.2-1.6
		c1.3-1,3.6-2.8,3.6-2.8l-0.3-3.9l3.1-4.1l2.3-2.3c0,0,2.1-2.8,1.8-3.9c-0.3-1-0.8-6.2-0.8-6.2s1-2.3,1.8-3.4
		c0.3-0.4,0.5-0.8,0.6-1.2c0.3-0.8,0.7-1.6,1.7-2.4c1.3-1.1,2.2-2.4,3-3.4c0.1-0.2,0.3-0.4,0.4-0.5l0.2-0.2c0.8-1.1,2.2-2.9,2.7-3.7
		c0.5-0.8,1-3.1,1-3.1l-4.7,0.8C55.6,18.4,53.7,15.8,52.1,13.7z"/>
	<path d="M-29.8,47c-0.7-0.1-1.6-0.8-2.5-1.5c-0.8-0.6-1.5-1.1-1.9-1.1c-0.8,0-2.1-0.5-2.8-1c-0.3-0.2-0.6-0.3-1-0.5
		c-0.7-0.4-1.5-0.8-1.9-1.3c-0.5-0.8-1.3-2.1-1.8-3.4c-0.1-0.2-0.2-0.4-0.2-0.6c-0.3-0.8-0.4-1.1-2.1-3l-0.4-0.4
		c-0.9-1.1-1.2-1.4-1.6-1.6c-0.1-0.1-0.3-0.2-0.5-0.3c-0.2-0.1-0.4-0.2-0.6-0.3c-0.7-0.4-1.3-0.7-1.7-1.1c-0.5-0.4-1-0.7-1.6-1
		c-1.3-0.5-1.9-1-2.8-1.8c-0.7-0.6-1.1-0.8-1.5-0.9c3.1,13.6,10.2,25.6,20.1,34.8c0.6,0.2,1,0,1.4-0.1c0.3-0.1,0.6-0.2,1-0.2
		c1,0,2.6-1.3,2.6-1.3l-1-3.1l1-3.9l1.3-3.6C-28.5,49.8-28.5,47.3-29.8,47z"/>
	<path d="M59.6,40.8l-2.1,3.9c0,0-3.1,1.3-3.4,2.3c-0.3,1-0.5,2.6-0.5,2.6s-1.3,2.8-1.6,3.9c-0.3,1,0.3,3.1,1,2.8
		c0.5-0.2,1.1-0.8,1.7-1.3c0.4-0.4,0.8-0.8,1.1-1c0.8-0.5,2.1-2.6,2.3-3.6c0.2-0.6,0.4-1.5,0.6-2.3c0.2-0.6,0.3-1.1,0.4-1.5
		c0.3-1,0.5-3.1,0.5-3.9c0-0.6-0.2-1.4-0.2-1.7C59.6,40.8,59.6,40.8,59.6,40.8z"/>
	<path d="M-51.7-6.2c0.4-0.9,1.6-2.9,2.8-4.6c0.5-0.7,1-1.5,1.3-2.1c1.3-2.1-0.3-1.3-1.6-0.5c-1.3,0.8,0.8-2.1,1.6-2.6
		c0.8-0.5,5.2-3.6,5.2-3.6s1.5-1.6-0.3-4.9c-1-1.8-0.6-2.5-0.3-3c0.1-0.3,0.3-0.5,0.3-0.8c0,0-0.2-0.1-0.5-0.1
		c-8.1,10.9-13,24.3-13.3,38.8c0.5-1.1,1-3.7,0.8-4.6c-0.1-0.7,0.1-2,0.4-3.3c0.2-1,0.4-2,0.4-2.6c0-1,1-2.6,1.9-4
		C-52.4-5-51.9-5.7-51.7-6.2z"/>
	<path d="M48.3-46c-0.2,0.1-0.4,0.2-0.7,0.4c-1.1,0.6-2.4,1.5-3,0.9c-0.8-0.8-2.6-1.9-2.6-1.9c1.6-1-3.1-2.8-3.1-2.8L33.5-49h-3.9
		c-0.3,0-0.8-0.1-1.4-0.2c-0.7-0.2-1.5-0.3-2.2-0.3c-0.9,0-2.7,0.6-4,1c-0.6,0.2-1.1,0.3-1.4,0.4c-0.4,0.1-1,0.4-1.7,0.7
		c-1,0.4-2.1,0.9-2.7,0.9c-1,0-2.6,1.9-2.6,1.9s-1.8,3.3-0.2,2.8c1.5-0.5,3.6-0.5,3.9,0.2c0.1,0.4,0.3,0.9,0.5,1.3
		c0.2,0.5,0.4,1.1,0.5,1.5c0.3,0.8,3.9,1,3.9,1s0.5-1.3,1.3-2.3c0.8-1,1.5-2.3,1.5-2.3s1.3,2.6,1.6,3.4c0.3,0.8-0.5,3.1-0.5,3.1
		s-2.8,1.8-3.6,1.8c-0.8,0-5.2-3.9-5.2-3.9c-1.5,0.5-2.8,1.3-2.8,1.3c-1.8,1.8-3.6,3.4-3.6,3.4S9.2-32.8,8.2-32
		c-0.5,0.3-1.2,0.6-1.9,0.8c-0.8,0.3-1.7,0.5-2,1c-1.3,1.8,0.5,3.1,0.5,3.1L3.2-25l-1.1,0.8l-3.8,0.8l-2.3,0.4
		c0.3,0.8-0.2,3.2-0.2,3.2v4.4c0,0,3.7,1,4.5,1c0.1,0,0.3,0,0.4,0c0.9,0,2.4,0.1,3.3-0.8c1-1,2.7-3.4,3.2-4.1
		c0.5-0.8,1.2-1.5,2.8-2.1c0.9-0.3,1.3-0.7,1.7-1c0.3-0.2,0.5-0.4,0.8-0.5c0.8-0.3,3.8-0.8,3.8-0.8s1.8,1.3,2.6,1.8
		c0.1,0.1,0.1,0.2,0.1,0.3c0.1,0.4,0.2,1,2.6,1.6v2l3.4-0.3l-1.6-2.1l-0.3-0.1l-3-3l-0.2-2.3c0,0,3.2,1.8,4.2,2.3
		c1,0.5,3.2,2.1,3.2,2.1l1.5,3.6l2.1,2.5c-0.7-0.9-2.4-3.3,0.3-3.3c0,0,2.5,0.3,3.2,0c0.8-0.3,1.5-0.5,2.5-1
		c0.5-0.3,0.4-0.8,0.3-1.5c-0.1-0.7-0.2-1.5,0.3-2.1c1-1.3,2.4-1.8,3.2-2.1c0.8-0.3,3.4-1.6,3.4-1.6l2.9,0.5c-1.3,1-2.8,2.6-1.8,2.3
		c1-0.3,3.4,1,4.4,1.8c1,0.8,0.3,2.6,0.3,2.6s-2.8-0.3-4.6-0.5c-1.8-0.3-4.7,0.3-4.7,0.3l-2.3,1.3c0,0-1.6,0.5-1.3,1.8
		c0.3,1.3,1.3,2.8,2.3,4.1c0.2,0.3,0.5,0.6,0.7,0.9c0.7,1,1.3,1.8,1.9,1.4c0.8-0.5,3.4-2.1,3.4-2.1s-0.5,1.8-0.3,3.1
		c0.3,1.3,0.3,3.1,0.3,3.1s-2.6,0-1.8,0.5c0.6,0.4,1.4,1.6,1.9,2.4c0.2,0.3,0.3,0.5,0.4,0.7c2.6,3.6,8,11.6,8.5,12.6
		c0.2,0.4,0.3,1,0.4,1.5c0.1,0.7,0.2,1.4,0.7,1.9c1.5,1.6,4.6,0,5.4-0.5c0.2-0.2,0.7-0.4,1.1-0.7c1.1-0.6,2.5-1.4,3-1.9
		c0.3-0.3,0.5-0.5,0.6-0.6c0.2-0.2,0.5-0.3,1.5-1c1.5-1,2.6-1.8,1.8-2.6c-0.8-0.8-2.3-3.6-2.3-3.6c-2.3,0.5-4.7-0.8-4.7-1.5
		c0-0.8-2.1-3.9-2.1-3.9s0.3-0.5,2.1,0.5c0.7,0.4,1.3,0.9,2,1.4c1,0.9,2,1.7,3,1.7c1.4,0,2.2,0.4,3.7,1.3c0.1,0.1,0.3,0.1,0.4,0.2
		c1,0.6,1.7,1.2,2.3,1.8c0.5,0.5,0.9,0.8,1.3,1.1c1,0.5,2.6,2.6,2.6,2.6s1.6,3.6,1.8,4.7c0.1,0.4,0.5,1.3,0.8,2.1
		c0.2,0.5,0.4,0.9,0.6,1.3c0-0.3,0-0.6,0.1-0.9c0.1-1,0.1-2,0.1-2.9C80.5-12.5,67.6-33.9,48.3-46z"/>
</g>
</svg>
