<?xml version="1.0" encoding="utf-8"?>
<!-- Generator: Adobe Illustrator 18.0.0, SVG Export Plug-In . SVG Version: 6.00 Build 0)  -->
<!DOCTYPE svg PUBLIC "-//W3C//DTD SVG 1.1//EN" "http://www.w3.org/Graphics/SVG/1.1/DTD/svg11.dtd">
<svg version="1.1" id="Layer_1" xmlns="http://www.w3.org/2000/svg" xmlns:xlink="http://www.w3.org/1999/xlink" x="0px" y="0px"
	 viewBox="-115.5 -117.5 250 250" enable-background="new -115.5 -117.5 250 250" xml:space="preserve">
<path d="M134.5,27.2V-91.2H95V14.1H-16.8v-52.6l-98.7,65.8l98.7,78.9V53.6h125C121.3,53.6,134.5,40.4,134.5,27.2z"/>
</svg>
