<?xml version="1.0" encoding="utf-8"?>
<!-- Generator: Adobe Illustrator 18.0.0, SVG Export Plug-In . SVG Version: 6.00 Build 0)  -->
<!DOCTYPE svg PUBLIC "-//W3C//DTD SVG 1.1//EN" "http://www.w3.org/Graphics/SVG/1.1/DTD/svg11.dtd">
<svg version="1.1" id="Layer_1" xmlns="http://www.w3.org/2000/svg" xmlns:xlink="http://www.w3.org/1999/xlink" x="0px" y="0px"
	 viewBox="-138 -115 300 250" enable-background="new -138 -115 300 250" xml:space="preserve">
<g>
	<path d="M-88-2.5c6.9,0,12.5-5.6,12.5-12.5v-87.5c0-6.9-5.6-12.5-12.5-12.5s-12.5,5.6-12.5,12.5V-15C-100.5-8.1-94.9-2.5-88-2.5z"
		/>
	<path d="M12-2.5C5.1-2.5-0.5,3.1-0.5,10v112.5c0,6.9,5.6,12.5,12.5,12.5s12.5-5.6,12.5-12.5V10C24.5,3.1,18.9-2.5,12-2.5z"/>
	<path d="M112,22.5c6.9,0,12.5-5.6,12.5-12.5v-112.5c0-6.9-5.6-12.5-12.5-12.5s-12.5,5.6-12.5,12.5V10
		C99.5,16.9,105.1,22.5,112,22.5z"/>
	<path d="M-50.5,22.5h-75c-6.9,0-12.5,5.6-12.5,12.5s5.6,12.5,12.5,12.5h25v75c0,6.9,5.6,12.5,12.5,12.5s12.5-5.6,12.5-12.5v-75h25
		c6.9,0,12.5-5.6,12.5-12.5S-43.6,22.5-50.5,22.5z"/>
	<path d="M49.5-52.5h-25v-50c0-6.9-5.6-12.5-12.5-12.5s-12.5,5.6-12.5,12.5v50h-25C-32.4-52.5-38-46.9-38-40s5.6,12.5,12.5,12.5h75
		C56.4-27.5,62-33.1,62-40S56.4-52.5,49.5-52.5z"/>
	<path d="M149.5,47.5h-75C67.6,47.5,62,53.1,62,60s5.6,12.5,12.5,12.5h25v50c0,6.9,5.6,12.5,12.5,12.5s12.5-5.6,12.5-12.5v-50h25
		c6.9,0,12.5-5.6,12.5-12.5S156.4,47.5,149.5,47.5z"/>
</g>
</svg>
