<?xml version="1.0" encoding="utf-8"?>
<!-- Generator: Adobe Illustrator 18.0.0, SVG Export Plug-In . SVG Version: 6.00 Build 0)  -->
<!DOCTYPE svg PUBLIC "-//W3C//DTD SVG 1.1//EN" "http://www.w3.org/Graphics/SVG/1.1/DTD/svg11.dtd">
<svg version="1.1" id="Layer_1" xmlns="http://www.w3.org/2000/svg" xmlns:xlink="http://www.w3.org/1999/xlink" x="0px" y="0px"
	 viewBox="-115 -115 250 250" enable-background="new -115 -115 250 250" xml:space="preserve">
<path d="M97.5-27.5H59.1l0.3-0.9c0.3-0.9,1.3-3.5,2.3-6l0,0v0l0,0c0.8-2.2,1.7-4.4,2-5.3c2.4-6.4,4.1-11.5,5.5-16.6
	c2.1-7.7,3.3-14.6,3.3-21.1c0-18.4-11.4-29.8-28.1-34.7c-7.6-2.2-14.2-2.8-21.9-2.8h-6l-3.8,4.7C8.5-105,0.2-95.5-9.4-84.6l0,0
	c-17.7,20.2-39.8,45.4-48.5,58.1c-2.3-0.7-4.7-1-7.1-1h-25c-13.8,0-25,11.2-25,25V110c0,13.8,11.2,25,25,25h25
	c8.6,0,16.2-4.3,20.7-10.9c3.8,2.5,8,4.5,12.6,6.1c10.5,3.8,21,4.9,29.6,4.8l87.1,0c34.4,0,50-50.7,50-125
	C135-11,120.9-27.5,97.5-27.5z M-65,110h-25V-2.5h25V110z M85,110H-2.5l-0.5,0c-5.5,0.1-13.2-0.8-20.3-3.3
	C-34.4,102.7-40,96.3-40,85V-2.5v0c0-3,0.6-5.7,1.8-8.5c2.2-5.1,22-27.7,40.8-49.1l0,0l0,0C12.3-71.2,21.7-82,28.3-89.8
	c3.1,0.2,6.1,0.7,9.1,1.6c7.2,2.1,10.1,5.1,10.1,10.7c0,4-0.8,8.8-2.4,14.5c-1.2,4.3-2.7,8.8-4.8,14.5c-0.3,0.8-1.1,2.8-1.9,4.9l0,0
	l0,0l0,0c-1,2.6-2,5.4-2.4,6.4c-1.6,4.4-2.7,7.6-3.4,10.6c-3.1,12.5,0,24,14.9,24h50C106.1-2.5,110,2,110,10
	C110,69.9,97.7,110,85,110z"/>
</svg>
