<?xml version="1.0" encoding="utf-8"?>
<!-- Generator: Adobe Illustrator 18.0.0, SVG Export Plug-In . SVG Version: 6.00 Build 0)  -->
<!DOCTYPE svg PUBLIC "-//W3C//DTD SVG 1.1//EN" "http://www.w3.org/Graphics/SVG/1.1/DTD/svg11.dtd">
<svg version="1.1" id="Layer_1" xmlns="http://www.w3.org/2000/svg" xmlns:xlink="http://www.w3.org/1999/xlink" x="0px" y="0px"
	 viewBox="-110 -110 250 250" enable-background="new -110 -110 250 250" xml:space="preserve">
<path d="M15-110c-69,0-125,56-125,125c0,69,56,125,125,125c69,0,125-56,125-125C140-54,84-110,15-110z M-21.7,78.6H-50V-6.5h28.3
	V78.6z M-35.8-18.1H-36c-9.5,0-15.7-6.5-15.7-14.7c0-8.3,6.3-14.7,16-14.7c9.7,0,15.7,6.4,15.8,14.7C-19.8-24.6-25.9-18.1-35.8-18.1
	z M80.5,78.6H52.2V33.1c0-11.4-4.1-19.2-14.4-19.2c-7.8,0-12.5,5.3-14.5,10.3c-0.7,1.8-0.9,4.4-0.9,6.9v47.5H-6c0,0,0.4-77.1,0-85.1
	h28.3V5.6C26.1-0.2,32.8-8.5,47.9-8.5c18.6,0,32.6,12.2,32.6,38.3L80.5,78.6z"/>
</svg>
