<?xml version="1.0" encoding="utf-8"?>
<!-- Generator: Adobe Illustrator 18.0.0, SVG Export Plug-In . SVG Version: 6.00 Build 0)  -->
<!DOCTYPE svg PUBLIC "-//W3C//DTD SVG 1.1//EN" "http://www.w3.org/Graphics/SVG/1.1/DTD/svg11.dtd">
<svg version="1.1" id="Layer_1" xmlns="http://www.w3.org/2000/svg" xmlns:xlink="http://www.w3.org/1999/xlink" x="0px" y="0px"
	 viewBox="60.5 59 250 250" enable-background="new 60.5 59 250 250" xml:space="preserve">
<g>
	<path d="M185.5,59c-69,0-125,56-125,125s56,125,125,125s125-56,125-125S254.5,59,185.5,59z M177.3,234.3c0,5-4,9-9,9h-20
		c-5,0-9-4-9-9V133.8c0-5,4-9,9-9h20c5,0,9,4,9,9V234.3z M231.8,234.3c0,5-4,9-9,9h-20c-5,0-9-4-9-9V133.8c0-5,4-9,9-9h20
		c5,0,9,4,9,9V234.3z"/>
</g>
</svg>
