<?xml version="1.0" encoding="utf-8"?>
<!-- Generator: Adobe Illustrator 18.0.0, SVG Export Plug-In . SVG Version: 6.00 Build 0)  -->
<!DOCTYPE svg PUBLIC "-//W3C//DTD SVG 1.1//EN" "http://www.w3.org/Graphics/SVG/1.1/DTD/svg11.dtd">
<svg version="1.1" id="Layer_1" xmlns="http://www.w3.org/2000/svg" xmlns:xlink="http://www.w3.org/1999/xlink" x="0px" y="0px"
	 viewBox="-117 -116.5 327.1 326.9" enable-background="new -117 -116.5 327.1 326.9" xml:space="preserve">
<path d="M-49.2-115.8c3.9-0.4,7.3,0.7,9.5,4.3c5,8,9.9,16,14.6,24.2c5.5,9.4,10.5,19.2,15.8,28.8c1.3,2.6,3.3,4.8,4.8,7.3
	c1.4,2.4,2.9,4.7,4.2,7.1c2.7,5.2,2.6,10.6-1.4,14.8c-5.9,6-12.4,11.6-18.8,17.4c-5.2,4.8-10.7,9.4-15.8,14.4
	c-4.1,3.9-5.1,8.6-2.4,13.7c4.2,7.8,8.4,15.6,12.8,23.2c17,28.3,38.6,52.2,65.9,70.6c10.6,7.2,21.6,13.7,32.6,20
	c10.5,5.9,14.5,4.8,22.6-4.2c7.6-8.4,14.8-16.9,22.4-25.2c1.8-2.1,3.9-3.8,6-5.5c4.3-3.5,8.9-4.1,13.9-1.6c1.3,0.7,2.9,1.3,4.1,2.1
	c12.9,9.3,27.6,15.8,41.3,23.7c7.3,4.2,14.5,8.8,21.8,13.1c3.9,2.4,5.5,5.6,5.2,10.3c-0.8,12.9-2.9,25.8-10.5,36.8
	c-3.1,4.6-7.7,8.5-12.2,11.8c-12.6,8.8-26.7,14.3-41.6,17.5c-13.6,3-27.1,2-40.2-2.1c-25.1-7.7-49.8-16.6-72.7-30
	C12.2,164.5-6.6,149.7-24,133.2c-22.1-20.9-41.7-43.8-57.7-69.7C-92,46.6-99.5,28.4-106.1,9.9c-4.1-11.1-8.1-22.2-9.9-34.1
	c-2.1-13.5-0.7-26.3,3.7-39c3.9-11.5,8.8-22.5,16-32.3c5.8-7.6,12.9-13.2,22.2-15.7c7.5-2,14.9-3.5,22.4-5.2
	C-50.8-115.7-50-115.7-49.2-115.8z"/>
</svg>
