<?xml version="1.0" encoding="utf-8"?>
<!-- Generator: Adobe Illustrator 18.0.0, SVG Export Plug-In . SVG Version: 6.00 Build 0)  -->
<!DOCTYPE svg PUBLIC "-//W3C//DTD SVG 1.1//EN" "http://www.w3.org/Graphics/SVG/1.1/DTD/svg11.dtd">
<svg version="1.1" id="Layer_1" xmlns="http://www.w3.org/2000/svg" xmlns:xlink="http://www.w3.org/1999/xlink" x="0px" y="0px"
	 viewBox="-112.5 -112.5 250 250" enable-background="new -112.5 -112.5 250 250" xml:space="preserve">
<path d="M66.2,44.7H54.9l-4-3.9c14-16.3,22.4-37.4,22.4-60.5c0-51.3-41.6-92.9-92.9-92.9c-51.3,0-92.9,41.6-92.9,92.9
	c0,51.3,41.6,92.9,92.9,92.9c23,0,44.2-8.4,60.5-22.4l3.9,4v11.3l71.5,71.3l21.3-21.3L66.2,44.7z M-19.6,44.7
	c-35.6,0-64.3-28.7-64.3-64.3c0-35.6,28.7-64.3,64.3-64.3c35.6,0,64.3,28.7,64.3,64.3C44.7,16,16,44.7-19.6,44.7z"/>
</svg>
