<?xml version="1.0" encoding="utf-8"?>
<!-- Generator: Adobe Illustrator 18.0.0, SVG Export Plug-In . SVG Version: 6.00 Build 0)  -->
<!DOCTYPE svg PUBLIC "-//W3C//DTD SVG 1.1//EN" "http://www.w3.org/Graphics/SVG/1.1/DTD/svg11.dtd">
<svg version="1.1" id="Layer_1" xmlns="http://www.w3.org/2000/svg" xmlns:xlink="http://www.w3.org/1999/xlink" x="0px" y="0px"
	 viewBox="-113 -113 250 250" enable-background="new -113 -113 250 250" xml:space="preserve">
<path d="M12-113c-69,0-125,56-125,125c0,69,56,125,125,125c69,0,125-56,125-125C137-57,81-113,12-113z M73.4-27.3L52.9,69.3
	c-1.4,6.9-5.6,8.5-11.3,5.3L10.3,51.6L-4.8,66.3c-1.7,1.6-3.1,3-6.1,3l2.1-31.9l58-52.3c2.5-2.3-0.6-3.4-3.9-1.3l-71.5,45.1
	l-30.9-9.6c-6.7-2-6.7-6.6,1.5-9.9L64.7-37.1C70.2-39.6,75.5-35.7,73.4-27.3z"/>
</svg>
