<?xml version="1.0" encoding="utf-8"?>
<!-- Generator: Adobe Illustrator 18.0.0, SVG Export Plug-In . SVG Version: 6.00 Build 0)  -->
<!DOCTYPE svg PUBLIC "-//W3C//DTD SVG 1.1//EN" "http://www.w3.org/Graphics/SVG/1.1/DTD/svg11.dtd">
<svg version="1.1" id="Layer_1" xmlns="http://www.w3.org/2000/svg" xmlns:xlink="http://www.w3.org/1999/xlink" x="0px" y="0px"
	 viewBox="0 0 52 52" enable-background="new 0 0 52 52" xml:space="preserve">
<g>
	<path fill="#B00000" d="M35.3,13.9l-3.9,3.8l0.8,5c0,0.2,0.2,0.3,0.2,0.5c0,0.7-0.5,1.2-1.2,1.2c-0.2,0-0.3,0-0.5-0.2l-4.9-2.5
		l-5.1,2.7c-0.2,0.2-0.3,0.2-0.5,0.2c-0.2,0-0.5,0-0.7-0.2c-0.3-0.3-0.5-0.7-0.5-1.2l0.8-5.4L16,14c-0.2-0.3-0.3-0.8-0.2-1.3
		c0.2-0.5,0.5-0.7,1-0.8l5.4-0.8l2.4-4.8c0.2-0.3,0.5-0.7,1-0.7c0.5,0,0.8,0.3,1,0.7l2.7,4.8l5.4,0.8c0.5,0,0.8,0.3,1,0.8
		C35.8,13,35.7,13.5,35.3,13.9z"/>
	<path fill="#B00000" d="M38.9,46.3h1.2c0.5,0,1.2,0.7,1,1.2v2.3c0,0.7-0.5,1.2-1.2,1.2H11.1c-0.7,0-1.2-0.5-1.2-1.2v-2.3
		c0-0.7,0.5-1.2,1.2-1.2h1.2h2.5h21.7H38.9z"/>
	<path fill="#FFFFFF" d="M20.4,25.1c-0.2,0-0.7,0-1-0.3c-0.5-0.4-0.7-0.9-0.7-1.5l0.8-5.2l-4-3.8c-0.3-0.6-0.4-1.2-0.2-1.7
		c0.2-0.7,0.8-1,1.3-1.2l5.2-0.8L24.1,6c0.3-0.6,0.8-1,1.5-1C26.2,5,26.7,5.4,27,6l2.6,4.6l5.1,0.8c0,0,0,0,0,0
		c0.6,0,1.1,0.4,1.4,1.2c0.2,0.5,0.1,1.2-0.5,1.7L32,17.9l0.8,4.9c0.1,0.1,0.1,0.3,0.1,0.5c0,1-0.7,1.7-1.7,1.7
		c-0.2,0-0.5,0-0.8-0.3l-4.6-2.4l-4.8,2.5C20.9,25.1,20.5,25.1,20.4,25.1z M16.4,13.7l4.2,4l-0.9,5.6c0,0.3,0.1,0.5,0.4,0.7
		c0,0,0.1,0,0.3,0c0,0,0.1,0,0.1,0l0.1-0.1l5.3-2.8l5.2,2.7c0,0,0.1,0,0.2,0c0.4,0,0.7-0.3,0.7-0.7c-0.1-0.1-0.2-0.3-0.2-0.5
		l-0.9-5.2l4.1-4c0.2-0.2,0.3-0.5,0.2-0.6c-0.2-0.6-0.5-0.6-0.6-0.6L29,11.5l-2.8-5.1C26.1,6.3,25.9,6,25.6,6S25.1,6.3,25,6.4
		l-2.5,5.1l-5.6,0.9c-0.4,0.1-0.5,0.2-0.6,0.5C16.2,13.2,16.3,13.5,16.4,13.7z"/>
	<path fill="#FFFFFF" d="M39.9,51.5H11.1c-1,0-1.7-0.7-1.7-1.7v-2.3c0-1,0.7-1.7,1.7-1.7h29c0.5,0,1,0.4,1.3,0.7
		c0.2,0.3,0.3,0.7,0.2,1v2.3C41.6,50.8,40.8,51.5,39.9,51.5z M11.1,46.8c-0.4,0-0.7,0.3-0.7,0.7v2.3c0,0.4,0.3,0.7,0.7,0.7h28.8
		c0.4,0,0.7-0.3,0.7-0.7l0-2.5c0,0,0-0.1-0.1-0.2c-0.1-0.2-0.3-0.3-0.4-0.3H11.1z"/>
	<path fill="#FFFFFF" d="M37,44.5H14.3v-4c0-1,0.7-1.7,1.7-1.7h3v-5c-3.6-1.5-6.4-4.1-8.1-7.5C4.7,26.1,0.5,14.5,0.5,6.9
		c0-1,0.7-1.7,1.7-1.7h7.2v-3c0-1,0.7-1.7,1.7-1.7h29c1,0,1.7,0.7,1.7,1.7v3.2h7.9c0.9,0,1.6,0.6,1.8,1.5l0,0.1
		c0,7.6-4.7,19.4-10.9,19.4c-0.1,0-0.2,0-0.2,0c-1.5,3.2-4.4,5.8-8,7.4v5h3c1,0,1.7,0.7,1.7,1.7V44.5z M15.3,43.5H36v-3
		c0-0.4-0.3-0.7-0.7-0.7h-4v-6.7l0.3-0.1c3.7-1.5,6.6-4.2,8-7.4l0.1-0.3h0.3c0.2,0,0.4,0.1,0.5,0.1c0,0,0,0,0,0
		c5.5,0,9.9-11,9.9-18.3c-0.1-0.4-0.4-0.7-0.8-0.7h-8.9V2.2c0-0.4-0.3-0.7-0.7-0.7h-29c-0.4,0-0.7,0.3-0.7,0.7v4H2.2
		c-0.4,0-0.7,0.3-0.7,0.7c0,7.2,4.1,18.4,9.6,18.4h0.5l0.1,0.3c1.6,3.4,4.4,6,8,7.4l0.3,0.1v6.7h-4c-0.4,0-0.7,0.3-0.7,0.7V43.5z"/>
	<path fill="#FFFFFF" d="M11.1,24.1l-0.8-0.3C6.6,22.8,3.4,14.6,3,8.2l0-0.5h7.4l0,0.5c0.1,5.6,0.3,14.2,0.5,15.1L11.1,24.1z
		 M4.1,8.7c0.4,5.9,3.1,12.2,5.8,13.9c-0.2-3-0.4-11.5-0.4-13.9H4.1z"/>
	<path fill="#FFFFFF" d="M39.9,24l0.2-0.7c0.2-0.8,0.4-9.7,0.5-15.1l0-0.5h8.3l0,0.5c-0.3,7.1-4.5,15.1-8.2,15.7L39.9,24z M41.6,8.7
		c0,2.4-0.2,11.1-0.4,14c2.7-1.3,6.1-7.6,6.6-14H41.6z"/>
</g>
</svg>
