<svg width="28" height="28" viewBox="0 0 28 28" fill="none" xmlns="http://www.w3.org/2000/svg">
<path fill-rule="evenodd" clip-rule="evenodd" d="M0 14C0 6.26801 6.26801 0 14 0C21.732 0 28 6.26801 28 14C28 21.732 21.732 28 14 28C6.26801 28 0 21.732 0 14Z" fill="#4C6C91"/>
<path fill-rule="evenodd" clip-rule="evenodd" d="M14.7323 18.5944C14.7323 18.5944 15.0018 18.565 15.1399 18.4194C15.2662 18.2861 15.2618 18.0344 15.2618 18.0344C15.2618 18.0344 15.245 16.8594 15.8009 16.6859C16.3487 16.5152 17.052 17.8222 17.7985 18.3248C18.3624 18.7048 18.7904 18.6216 18.7904 18.6216L20.7851 18.5944C20.7851 18.5944 21.8281 18.5313 21.3336 17.7262C21.2927 17.6602 21.0451 17.1304 19.8509 16.042C18.5997 14.9028 18.7677 15.0871 20.2738 13.1162C21.1912 11.916 21.5578 11.1833 21.4431 10.87C21.3343 10.5703 20.6594 10.6499 20.6594 10.6499L18.4142 10.6635C18.4142 10.6635 18.2477 10.6413 18.1242 10.7137C18.0037 10.7847 17.9256 10.9503 17.9256 10.9503C17.9256 10.9503 17.5706 11.8787 17.0966 12.6688C16.0967 14.335 15.6972 14.4232 15.5336 14.3199C15.153 14.0783 15.248 13.3506 15.248 12.8337C15.248 11.2184 15.4978 10.5452 14.7623 10.371C14.5183 10.3129 14.3386 10.2749 13.7142 10.2685C12.9129 10.2606 12.2351 10.2713 11.8509 10.4556C11.5953 10.5782 11.3981 10.8521 11.5186 10.8678C11.6669 10.8872 12.0028 10.9567 12.1811 11.1948C12.4111 11.5023 12.4031 12.192 12.4031 12.192C12.4031 12.192 12.5353 14.0934 12.0941 14.3293C11.7918 14.4913 11.3769 14.1608 10.4851 12.6487C10.0286 11.8744 9.68386 11.0184 9.68386 11.0184C9.68386 11.0184 9.61739 10.8585 9.49834 10.7725C9.35445 10.6685 9.1536 10.6363 9.1536 10.6363L7.02013 10.6499C7.02013 10.6499 6.69949 10.6585 6.58189 10.7954C6.47745 10.9166 6.57386 11.1682 6.57386 11.1682C6.57386 11.1682 8.24426 15.0046 10.136 16.9382C11.8706 18.7105 13.8398 18.5944 13.8398 18.5944H14.7323Z" fill="white"/>
</svg>
